More that You Can Do With Scales
…
count: false
 
Demonstration 1: Select Variables, then Violin Plot
.panel1-demo1-auto[

```r
*mdeaths
```
]
 
.panel2-demo1-auto[

```
# A tibble: 72 × 5
   deaths month  year   day date      
    <dbl> <int> <dbl> <dbl> <date>    
 1   2134     1  1974     1 1974-01-01
 2   1863     2  1974     1 1974-02-01
 3   1877     3  1974     1 1974-03-01
 4   1877     4  1974     1 1974-04-01
 5   1492     5  1974     1 1974-05-01
 6   1249     6  1974     1 1974-06-01
 7   1280     7  1974     1 1974-07-01
 8   1131     8  1974     1 1974-08-01
 9   1209     9  1974     1 1974-09-01
10   1492    10  1974     1 1974-10-01
# … with 62 more rows
```
…
