How to Use sample() functions to Take Random Subsets of Rows
…
*covid_dates
```
]
 
.panel2-filter1-auto[

```
[1] 15524
```

```
# A tibble: 15,524 x 18
   subject_id fake_first_name fake_last_name gender pan_day test_id clinic_name
        <dbl> <chr>           <chr>          <chr>    <dbl> <chr>   <chr>      
 1       1412 jhezane         westerling     female       4 covid   inpatient …
 2        533 penny           targaryen      female       7 covid   clinical l…
 3       9134 grunt           rivers         male         7 covid   clinical l…
 4       8518 melisandre      swyft          female       8 covid   clinical l…
 5       8967 rolley          karstark       male         8 covid   emergency …
 6      11048 megga           karstark       female       8 covid   oncology d…
 7        663 ithoke          targaryen      male         9 covid   clinical l…
 8       2158 ravella         frey           female       9 covid   emergency …
 9       3794 styr            tyrell         male         9 covid   clinical l…
10       4706 wynafryd        seaworth       male         9 covid   clinical l…
# … with 15,514 more rows, and 11 more variables: result <chr>,
#   demo_group <chr>, age <dbl>, drive_thru_ind <dbl>, ct_result <dbl>,
#   orderset <dbl>, payor_group <chr>, patient_class <chr>, col_rec_tat <dbl>,
#   rec_ver_tat <dbl>, fake_date <date>
```
…
covid_dates %>%
* slice_sample(prop = 0.3)
```
]
 
.panel2-filter1-auto[

```
[1] 15524
```

```
# A tibble: 4,657 x 18
   subject_id fake_first_name fake_last_name gender pan_day test_id clinic_name
        <dbl> <chr>           <chr>          <chr>    <dbl> <chr>   <chr>      
 1       6073 sharna          baelish        female      82 covid   inpatient …
 2       8713 bryce           kettleblack    male        77 covid   laboratory 
 3       8899 pate            harlaw         male        84 covid   medical ce…
 4        644 luco            ryswell        male        86 covid   clinical l…
 5       9462 barsena         tyrell         female      75 covid   clinical l…
 6      11409 watt            baelish        male        16 covid   care ntwk  
 7       7790 morna           royce          female      50 covid   clinical l…
 8      10155 sarella         clegane        female      26 covid   clinical l…
 9      11361 emrick          kettleblack    male        32 covid   inpatient …
10       6183 maris           royce          female     100 covid   emergency …
# … with 4,647 more rows, and 11 more variables: result <chr>,
#   demo_group <chr>, age <dbl>, drive_thru_ind <dbl>, ct_result <dbl>,
#   orderset <dbl>, payor_group <chr>, patient_class <chr>, col_rec_tat <dbl>,
#   rec_ver_tat <dbl>, fake_date <date>
```
…
# see how many rows now

# Format:
*#   slice_sample(prop = 0.nn)                    <br>  #   slice_sample(prop = 0.nn)                    <br>
```
]
 
.panel2-filter1-auto[

```
[1] 15524
```

```
# A tibble: 4,657 x 18
   subject_id fake_first_name fake_last_name gender pan_day test_id clinic_name
        <dbl> <chr>           <chr>          <chr>    <dbl> <chr>   <chr>      
 1       7877 ketter          tully          male        40 covid   clinical l…
 2      11178 myrcella        manderly       female      80 covid   emergency …
 3        204 glendon         stark          male        85 covid   clinical l…
 4       6044 polliver        lannister      male        45 covid   emergency …
 5       9657 val             royce          female      40 covid   emergency …
 6       8042 ragnor          baratheon      male        86 covid   clinical l…
 7       2367 big             sand           male        49 covid   clinical l…
 8      10258 harma           kettleblack    female      33 covid   clinical l…
 9       2177 hali            martell        female     106 covid   clinical l…
10       8873 melly           snow           female      58 covid   hosp of th…
# … with 4,647 more rows, and 11 more variables: result <chr>,
#   demo_group <chr>, age <dbl>, drive_thru_ind <dbl>, ct_result <dbl>,
#   orderset <dbl>, payor_group <chr>, patient_class <chr>, col_rec_tat <dbl>,
#   rec_ver_tat <dbl>, fake_date <date>
```
…
# make training set
*covid_dates
```
]
 
.panel2-filter2-auto[

```
[1] 15524
```

```
# A tibble: 15,524 x 18
   subject_id fake_first_name fake_last_name gender pan_day test_id clinic_name
        <dbl> <chr>           <chr>          <chr>    <dbl> <chr>   <chr>      
 1       1412 jhezane         westerling     female       4 covid   inpatient …
 2        533 penny           targaryen      female       7 covid   clinical l…
 3       9134 grunt           rivers         male         7 covid   clinical l…
 4       8518 melisandre      swyft          female       8 covid   clinical l…
 5       8967 rolley          karstark       male         8 covid   emergency …
 6      11048 megga           karstark       female       8 covid   oncology d…
 7        663 ithoke          targaryen      male         9 covid   clinical l…
 8       2158 ravella         frey           female       9 covid   emergency …
 9       3794 styr            tyrell         male         9 covid   clinical l…
10       4706 wynafryd        seaworth       male         9 covid   clinical l…
# … with 15,514 more rows, and 11 more variables: result <chr>,
#   demo_group <chr>, age <dbl>, drive_thru_ind <dbl>, ct_result <dbl>,
#   orderset <dbl>, payor_group <chr>, patient_class <chr>, col_rec_tat <dbl>,
#   rec_ver_tat <dbl>, fake_date <date>
```
…
# make training set
covid_dates %>%
* slice_sample(prop = 0.7)
```
]
 
.panel2-filter2-auto[

```
[1] 15524
```

```
# A tibble: 10,866 x 18
   subject_id fake_first_name fake_last_name gender pan_day test_id clinic_name
        <dbl> <chr>           <chr>          <chr>    <dbl> <chr>   <chr>      
 1        398 bryen           martell        male        71 covid   inpatient …
 2       7611 jynessa         umber          female      37 covid   inpatient …
 3          4 asha            tarly          female      98 covid   clinical l…
 4       9518 hoster          umber          male        23 covid   clinical l…
 5       4295 tallad          mormont        male        14 covid   emergency …
 6       1910 sour            bolton         male        93 covid   picu       
 7       6294 triston         clegane        male        47 covid   clinical l…
 8       3513 quent           martell        male        18 covid   emergency …
 9       5900 becca           bolton         female      89 covid   clinical l…
10       1293 luwin           rivers         male        79 covid   emergency …
# … with 10,856 more rows, and 11 more variables: result <chr>,
#   demo_group <chr>, age <dbl>, drive_thru_ind <dbl>, ct_result <dbl>,
#   orderset <dbl>, payor_group <chr>, patient_class <chr>, col_rec_tat <dbl>,
#   rec_ver_tat <dbl>, fake_date <date>
```
…
# now make testing set
*setdiff(covid_dates,
*       training_covid_dates)
```
]
 
.panel2-filter2-auto[

```
[1] 15524
```

```
# A tibble: 15,524 x 18
   subject_id fake_first_name fake_last_name gender pan_day test_id clinic_name
        <dbl> <chr>           <chr>          <chr>    <dbl> <chr>   <chr>      
 1       1412 jhezane         westerling     female       4 covid   inpatient …
 2        533 penny           targaryen      female       7 covid   clinical l…
 3       9134 grunt           rivers         male         7 covid   clinical l…
 4       8518 melisandre      swyft          female       8 covid   clinical l…
 5       8967 rolley          karstark       male         8 covid   emergency …
 6      11048 megga           karstark       female       8 covid   oncology d…
 7        663 ithoke          targaryen      male         9 covid   clinical l…
 8       2158 ravella         frey           female       9 covid   emergency …
 9       3794 styr            tyrell         male         9 covid   clinical l…
10       4706 wynafryd        seaworth       male         9 covid   clinical l…
# … with 15,514 more rows, and 11 more variables: result <chr>,
#   demo_group <chr>, age <dbl>, drive_thru_ind <dbl>, ct_result <dbl>,
#   orderset <dbl>, payor_group <chr>, patient_class <chr>, col_rec_tat <dbl>,
#   rec_ver_tat <dbl>, fake_date <date>
```
…
# Format:
*#   slice_sample(prop = 0.nn)  %>%          <br>  #   slice_sample(prop = 0.nn)  %>%          <br>
```
]
 
.panel2-filter2-auto[

```
[1] 15524
```

```
# A tibble: 15,524 x 18
   subject_id fake_first_name fake_last_name gender pan_day test_id clinic_name
        <dbl> <chr>           <chr>          <chr>    <dbl> <chr>   <chr>      
 1       1412 jhezane         westerling     female       4 covid   inpatient …
 2        533 penny           targaryen      female       7 covid   clinical l…
 3       9134 grunt           rivers         male         7 covid   clinical l…
 4       8518 melisandre      swyft          female       8 covid   clinical l…
 5       8967 rolley          karstark       male         8 covid   emergency …
 6      11048 megga           karstark       female       8 covid   oncology d…
 7        663 ithoke          targaryen      male         9 covid   clinical l…
 8       2158 ravella         frey           female       9 covid   emergency …
 9       3794 styr            tyrell         male         9 covid   clinical l…
10       4706 wynafryd        seaworth       male         9 covid   clinical l…
# … with 15,514 more rows, and 11 more variables: result <chr>,
#   demo_group <chr>, age <dbl>, drive_thru_ind <dbl>, ct_result <dbl>,
#   orderset <dbl>, payor_group <chr>, patient_class <chr>, col_rec_tat <dbl>,
#   rec_ver_tat <dbl>, fake_date <date>
```
…
# Format:
#   slice_sample(prop = 0.nn)  %>%          <br>  #   slice_sample(prop = 0.nn)  %>%          <br>
*#   setdiff(full_data, .)                  <br>  #   setdiff(full_data, .)                  <br>
```
]
 
.panel2-filter2-auto[

```
[1] 15524
```

```
# A tibble: 15,524 x 18
   subject_id fake_first_name fake_last_name gender pan_day test_id clinic_name
        <dbl> <chr>           <chr>          <chr>    <dbl> <chr>   <chr>      
 1       1412 jhezane         westerling     female       4 covid   inpatient …
 2        533 penny           targaryen      female       7 covid   clinical l…
 3       9134 grunt           rivers         male         7 covid   clinical l…
 4       8518 melisandre      swyft          female       8 covid   clinical l…
 5       8967 rolley          karstark       male         8 covid   emergency …
 6      11048 megga           karstark       female       8 covid   oncology d…
 7        663 ithoke          targaryen      male         9 covid   clinical l…
 8       2158 ravella         frey           female       9 covid   emergency …
 9       3794 styr            tyrell         male         9 covid   clinical l…
10       4706 wynafryd        seaworth       male         9 covid   clinical l…
# … with 15,514 more rows, and 11 more variables: result <chr>,
#   demo_group <chr>, age <dbl>, drive_thru_ind <dbl>, ct_result <dbl>,
#   orderset <dbl>, payor_group <chr>, patient_class <chr>, col_rec_tat <dbl>,
#   rec_ver_tat <dbl>, fake_date <date>
```
…
*covid_dates
```
]
 
.panel2-filter3-auto[

```
[1] 15524
```

```
# A tibble: 15,524 x 18
   subject_id fake_first_name fake_last_name gender pan_day test_id clinic_name
        <dbl> <chr>           <chr>          <chr>    <dbl> <chr>   <chr>      
 1       1412 jhezane         westerling     female       4 covid   inpatient …
 2        533 penny           targaryen      female       7 covid   clinical l…
 3       9134 grunt           rivers         male         7 covid   clinical l…
 4       8518 melisandre      swyft          female       8 covid   clinical l…
 5       8967 rolley          karstark       male         8 covid   emergency …
 6      11048 megga           karstark       female       8 covid   oncology d…
 7        663 ithoke          targaryen      male         9 covid   clinical l…
 8       2158 ravella         frey           female       9 covid   emergency …
 9       3794 styr            tyrell         male         9 covid   clinical l…
10       4706 wynafryd        seaworth       male         9 covid   clinical l…
# … with 15,514 more rows, and 11 more variables: result <chr>,
#   demo_group <chr>, age <dbl>, drive_thru_ind <dbl>, ct_result <dbl>,
#   orderset <dbl>, payor_group <chr>, patient_class <chr>, col_rec_tat <dbl>,
#   rec_ver_tat <dbl>, fake_date <date>
```
…
covid_dates %>%
* slice_sample(n = 50)
```
]
 
.panel2-filter3-auto[

```
[1] 15524
```

```
# A tibble: 50 x 18
   subject_id fake_first_name fake_last_name gender pan_day test_id clinic_name
        <dbl> <chr>           <chr>          <chr>    <dbl> <chr>   <chr>      
 1       3050 danwell         clegane        male        29 covid   emergency …
 2       7811 ghost           baratheon      female      12 covid   line clini…
 3        115 kella           targaryen      female      49 covid   clinical l…
 4        909 gorold          ryswell        male        33 covid   inpatient …
 5       4928 aggar           royce          male        66 covid   clinical l…
 6       4525 eddard          karstark       male        86 covid   care ntwk  
 7        494 morton          stark          male        83 covid   clinical l…
 8       2784 myrcella        rivers         female      49 covid   emergency …
 9       8120 dalla           greyjoy        female      88 covid   clinical l…
10       8432 mebble          sand           male        84 covid   emergency …
# … with 40 more rows, and 11 more variables: result <chr>, demo_group <chr>,
#   age <dbl>, drive_thru_ind <dbl>, ct_result <dbl>, orderset <dbl>,
#   payor_group <chr>, patient_class <chr>, col_rec_tat <dbl>,
#   rec_ver_tat <dbl>, fake_date <date>
```
…
# see how many rows now

# Format:
*#   slice_sample(n = NN)                    <br>  #   slice_sample(n = NN)                    <br>
```
]
 
.panel2-filter3-auto[

```
[1] 15524
```

```
# A tibble: 50 x 18
   subject_id fake_first_name fake_last_name gender pan_day test_id clinic_name
        <dbl> <chr>           <chr>          <chr>    <dbl> <chr>   <chr>      
 1        169 becca           targaryen      female      37 covid   inpatient …
 2       1921 maerie          kettleblack    female      27 covid   clinical l…
 3       7110 jhaqo           baratheon      male        84 covid   clinical l…
 4        914 owen            tarly          male        25 covid   emergency …
 5       6128 jhezane         targaryen      female      65 covid   behavioral…
 6       2857 matrice         bolton         female      35 covid   emergency …
 7       7041 mark            seaworth       male        85 covid   gol        
 8       4689 ben             kettleblack    male        36 covid   picu       
 9       3219 walda           baelish        female      54 covid   laboratory 
10       7420 myrcella        umber          female      95 covid   clinical l…
# … with 40 more rows, and 11 more variables: result <chr>, demo_group <chr>,
#   age <dbl>, drive_thru_ind <dbl>, ct_result <dbl>, orderset <dbl>,
#   payor_group <chr>, patient_class <chr>, col_rec_tat <dbl>,
#   rec_ver_tat <dbl>, fake_date <date>
```
…
