How to Use filter() functions with Dates
…
*covid_dates
```
]
 
.panel2-filter1-auto[

```
[1] 15524
```

```
# A tibble: 15,524 x 18
   subject_id fake_first_name fake_last_name gender pan_day test_id clinic_name
        <dbl> <chr>           <chr>          <chr>    <dbl> <chr>   <chr>      
 1       1412 jhezane         westerling     female       4 covid   inpatient …
 2        533 penny           targaryen      female       7 covid   clinical l…
 3       9134 grunt           rivers         male         7 covid   clinical l…
 4       8518 melisandre      swyft          female       8 covid   clinical l…
 5       8967 rolley          karstark       male         8 covid   emergency …
 6      11048 megga           karstark       female       8 covid   oncology d…
 7        663 ithoke          targaryen      male         9 covid   clinical l…
 8       2158 ravella         frey           female       9 covid   emergency …
 9       3794 styr            tyrell         male         9 covid   clinical l…
10       4706 wynafryd        seaworth       male         9 covid   clinical l…
# … with 15,514 more rows, and 11 more variables: result <chr>,
#   demo_group <chr>, age <dbl>, drive_thru_ind <dbl>, ct_result <dbl>,
#   orderset <dbl>, payor_group <chr>, patient_class <chr>, col_rec_tat <dbl>,
#   rec_ver_tat <dbl>, fake_date <date>
```
…
covid_dates %>%
# selected 3 columns
# see how date changes w/filter
* select(fake_date, result, gender)
```
]
 
.panel2-filter1-auto[

```
[1] 15524
```

```
# A tibble: 15,524 x 3
   fake_date  result   gender
   <date>     <chr>    <chr> 
 1 2020-03-05 negative female
 2 2020-03-08 negative female
 3 2020-03-08 negative male  
 4 2020-03-09 negative female
 5 2020-03-09 negative male  
 6 2020-03-09 negative female
 7 2020-03-10 negative male  
 8 2020-03-10 negative female
 9 2020-03-10 negative male  
10 2020-03-10 negative male  
# … with 15,514 more rows
```
…
.panel2-filter1-auto[

```
[1] 15524
```

```
# A tibble: 2,421 x 3
   fake_date  result   gender
   <date>     <chr>    <chr> 
 1 2020-03-05 negative female
 2 2020-03-08 negative female
 3 2020-03-08 negative male  
 4 2020-03-09 negative female
 5 2020-03-09 negative male  
 6 2020-03-09 negative female
 7 2020-03-10 negative male  
 8 2020-03-10 negative female
 9 2020-03-10 negative male  
10 2020-03-10 negative male  
# … with 2,411 more rows
```
…
.panel2-filter1-auto[

```
[1] 15524
```

```
# A tibble: 2,421 x 3
   fake_date  result   gender
   <date>     <chr>    <chr> 
 1 2020-03-05 negative female
 2 2020-03-08 negative female
 3 2020-03-08 negative male  
 4 2020-03-09 negative female
 5 2020-03-09 negative male  
 6 2020-03-09 negative female
 7 2020-03-10 negative male  
 8 2020-03-10 negative female
 9 2020-03-10 negative male  
10 2020-03-10 negative male  
# … with 2,411 more rows
```
…
.panel2-filter1-auto[

```
[1] 15524
```

```
# A tibble: 2,421 x 3
   fake_date  result   gender
   <date>     <chr>    <chr> 
 1 2020-03-05 negative female
 2 2020-03-08 negative female
 3 2020-03-08 negative male  
 4 2020-03-09 negative female
 5 2020-03-09 negative male  
 6 2020-03-09 negative female
 7 2020-03-10 negative male  
 8 2020-03-10 negative female
 9 2020-03-10 negative male  
10 2020-03-10 negative male  
# … with 2,411 more rows
```
…
*bmt_dates
```
]
 
.panel2-filter2-auto[

```
[1] 64
```

```
# A tibble: 64 x 29
      id   age   sex  race diagnosis diagnosis_type time_to_transpl…
   <dbl> <dbl> <dbl> <dbl> <chr>              <dbl>            <dbl>
 1     1    61     1     0 acute my…              1             5.16
 2     2    62     1     1 non-Hodg…              0            79.0 
 3     3    63     0     1 non-Hodg…              0            35.6 
 4     4    33     0     1 Hodgkin …              0            33.0 
 5     5    54     0     1 acute ly…              0            11.4 
 6     6    55     1     1 myelofib…              1             2.43
 7     7    67     1     1 acute my…              1             9.59
 8     8    51     1     1 acute my…              1            NA   
 9     9    44     0     0 multiple…              0            43.4 
10    10    59     1     1 chronic …              0            92.7 
# … with 54 more rows, and 22 more variables: prior_radiation <dbl>,
#   prior_chemo <dbl>, prior_transplant <dbl>, recipient_cmv <dbl>,
#   donor_cmv <dbl>, donor_sex <dbl>, tnc_dose <dbl>, cd34_dose <dbl>,
#   cd3_dose <dbl>, cd8_dose <dbl>, tbi_dose <dbl>, c1_c2 <dbl>, a_ki_rs <dbl>,
#   cmv <dbl>, time_to_cmv <dbl>, agvhd <dbl>, time_to_agvhd <dbl>,
#   cgvhd <dbl>, time_to_cgvhd <dbl>, fake_dx_date <date>,
#   fake_bmt_date <date>, fake_agvhd_date <date>
```
…
bmt_dates %>%
# selected 3 columns
# see how date changes w/filter
* select(fake_bmt_date, sex, age)
```
]
 
.panel2-filter2-auto[

```
[1] 64
```

```
# A tibble: 64 x 3
   fake_bmt_date   sex   age
   <date>        <dbl> <dbl>
 1 2014-06-25        1    61
 2 2020-07-20        1    62
 3 2016-12-23        0    63
 4 2016-10-08        0    33
 5 2014-12-29        0    54
 6 2014-04-04        1    55
 7 2014-11-05        1    67
 8 NA                1    51
 9 2017-08-16        0    44
10 2021-09-02        1    59
# … with 54 more rows
```
…
.panel2-filter2-auto[

```
[1] 64
```

```
# A tibble: 53 x 3
   fake_bmt_date   sex   age
   <date>        <dbl> <dbl>
 1 2014-06-25        1    61
 2 2016-12-23        0    63
 3 2016-10-08        0    33
 4 2014-12-29        0    54
 5 2014-04-04        1    55
 6 2014-11-05        1    67
 7 2017-08-16        0    44
 8 2017-04-05        1    45
 9 2015-07-10        1    57
10 2014-06-06        0    52
# … with 43 more rows
```
…
.panel2-filter2-auto[

```
[1] 64
```

```
# A tibble: 44 x 3
   fake_bmt_date   sex   age
   <date>        <dbl> <dbl>
 1 2014-06-25        1    61
 2 2016-12-23        0    63
 3 2014-12-29        0    54
 4 2014-04-04        1    55
 5 2014-11-05        1    67
 6 2017-08-16        0    44
 7 2017-04-05        1    45
 8 2015-07-10        1    57
 9 2014-06-06        0    52
10 2015-03-08        0    62
# … with 34 more rows
```
…
.panel2-filter2-auto[

```
[1] 64
```

```
# A tibble: 44 x 3
   fake_bmt_date   sex   age
   <date>        <dbl> <dbl>
 1 2014-04-04        1    55
 2 2014-04-07        1    61
 3 2014-04-27        1    57
 4 2014-05-11        1    48
 5 2014-05-21        0    61
 6 2014-05-23        1    49
 7 2014-06-05        1    57
 8 2014-06-06        0    52
 9 2014-06-06        1    62
10 2014-06-25        1    61
# … with 34 more rows
```
…
.panel2-filter2-auto[

```
[1] 64
```

```
# A tibble: 44 x 3
   fake_bmt_date   sex   age
   <date>        <dbl> <dbl>
 1 2014-04-04        1    55
 2 2014-04-07        1    61
 3 2014-04-27        1    57
 4 2014-05-11        1    48
 5 2014-05-21        0    61
 6 2014-05-23        1    49
 7 2014-06-05        1    57
 8 2014-06-06        0    52
 9 2014-06-06        1    62
10 2014-06-25        1    61
# … with 34 more rows
```
…
.panel2-filter2-auto[

```
[1] 64
```

```
# A tibble: 44 x 3
   fake_bmt_date   sex   age
   <date>        <dbl> <dbl>
 1 2014-04-04        1    55
 2 2014-04-07        1    61
 3 2014-04-27        1    57
 4 2014-05-11        1    48
 5 2014-05-21        0    61
 6 2014-05-23        1    49
 7 2014-06-05        1    57
 8 2014-06-06        0    52
 9 2014-06-06        1    62
10 2014-06-25        1    61
# … with 34 more rows
```
…
*bmt_dates
```
]
 
.panel2-filter3-auto[

```
[1] 64
```

```
# A tibble: 64 x 29
      id   age   sex  race diagnosis diagnosis_type time_to_transpl…
   <dbl> <dbl> <dbl> <dbl> <chr>              <dbl>            <dbl>
 1     1    61     1     0 acute my…              1             5.16
 2     2    62     1     1 non-Hodg…              0            79.0 
 3     3    63     0     1 non-Hodg…              0            35.6 
 4     4    33     0     1 Hodgkin …              0            33.0 
 5     5    54     0     1 acute ly…              0            11.4 
 6     6    55     1     1 myelofib…              1             2.43
 7     7    67     1     1 acute my…              1             9.59
 8     8    51     1     1 acute my…              1            NA   
 9     9    44     0     0 multiple…              0            43.4 
10    10    59     1     1 chronic …              0            92.7 
# … with 54 more rows, and 22 more variables: prior_radiation <dbl>,
#   prior_chemo <dbl>, prior_transplant <dbl>, recipient_cmv <dbl>,
#   donor_cmv <dbl>, donor_sex <dbl>, tnc_dose <dbl>, cd34_dose <dbl>,
#   cd3_dose <dbl>, cd8_dose <dbl>, tbi_dose <dbl>, c1_c2 <dbl>, a_ki_rs <dbl>,
#   cmv <dbl>, time_to_cmv <dbl>, agvhd <dbl>, time_to_agvhd <dbl>,
#   cgvhd <dbl>, time_to_cgvhd <dbl>, fake_dx_date <date>,
#   fake_bmt_date <date>, fake_agvhd_date <date>
```
…
bmt_dates %>%
# selected 3 columns
# see how date changes w/filter
* select(fake_agvhd_date, sex, age)
```
]
 
.panel2-filter3-auto[

```
[1] 64
```

```
# A tibble: 64 x 3
   fake_agvhd_date   sex   age
   <date>          <dbl> <dbl>
 1 2014-10-09          1    61
 2 2025-11-25          1    62
 3 2017-04-14          0    63
 4 2019-02-11          0    33
 5 2015-03-23          0    54
 6 2014-07-29          1    55
 7 2015-02-03          1    67
 8 NA                  1    51
 9 2017-09-06          0    44
10 2023-06-26          1    59
# … with 54 more rows
```
…
*bmt_dates
```
]
 
.panel2-filter4-auto[

```
[1] 64
```

```
# A tibble: 64 x 29
      id   age   sex  race diagnosis diagnosis_type time_to_transpl…
   <dbl> <dbl> <dbl> <dbl> <chr>              <dbl>            <dbl>
 1     1    61     1     0 acute my…              1             5.16
 2     2    62     1     1 non-Hodg…              0            79.0 
 3     3    63     0     1 non-Hodg…              0            35.6 
 4     4    33     0     1 Hodgkin …              0            33.0 
 5     5    54     0     1 acute ly…              0            11.4 
 6     6    55     1     1 myelofib…              1             2.43
 7     7    67     1     1 acute my…              1             9.59
 8     8    51     1     1 acute my…              1            NA   
 9     9    44     0     0 multiple…              0            43.4 
10    10    59     1     1 chronic …              0            92.7 
# … with 54 more rows, and 22 more variables: prior_radiation <dbl>,
#   prior_chemo <dbl>, prior_transplant <dbl>, recipient_cmv <dbl>,
#   donor_cmv <dbl>, donor_sex <dbl>, tnc_dose <dbl>, cd34_dose <dbl>,
#   cd3_dose <dbl>, cd8_dose <dbl>, tbi_dose <dbl>, c1_c2 <dbl>, a_ki_rs <dbl>,
#   cmv <dbl>, time_to_cmv <dbl>, agvhd <dbl>, time_to_agvhd <dbl>,
#   cgvhd <dbl>, time_to_cgvhd <dbl>, fake_dx_date <date>,
#   fake_bmt_date <date>, fake_agvhd_date <date>
```
…
bmt_dates %>%
# selected 3 columns
# see how date changes w/filter
* select(fake_bmt_date, sex, age)
```
]
 
.panel2-filter4-auto[

```
[1] 64
```

```
# A tibble: 64 x 3
   fake_bmt_date   sex   age
   <date>        <dbl> <dbl>
 1 2014-06-25        1    61
 2 2020-07-20        1    62
 3 2016-12-23        0    63
 4 2016-10-08        0    33
 5 2014-12-29        0    54
 6 2014-04-04        1    55
 7 2014-11-05        1    67
 8 NA                1    51
 9 2017-08-16        0    44
10 2021-09-02        1    59
# … with 54 more rows
```
…
.panel2-filter4-auto[

```
[1] 64
```

```
# A tibble: 64 x 4
   fake_bmt_date   sex   age weekday
   <date>        <dbl> <dbl> <ord>  
 1 2014-06-25        1    61 Wed    
 2 2020-07-20        1    62 Mon    
 3 2016-12-23        0    63 Fri    
 4 2016-10-08        0    33 Sat    
 5 2014-12-29        0    54 Mon    
 6 2014-04-04        1    55 Fri    
 7 2014-11-05        1    67 Wed    
 8 NA                1    51 <NA>   
 9 2017-08-16        0    44 Wed    
10 2021-09-02        1    59 Thu    
# … with 54 more rows
```
…
