How to Use filter() on Character Variables
…
*cmv
```
]
 
.panel2-filter1-auto[

```
[1] 64
```

```
# A tibble: 64 x 26
      id   age   sex  race diagnosis diagnosis_type time_to_transpl…
   <dbl> <dbl> <dbl> <dbl> <chr>              <dbl>            <dbl>
 1     1    61     1     0 acute my…              1             5.16
 2     2    62     1     1 non-Hodg…              0            79.0 
 3     3    63     0     1 non-Hodg…              0            35.6 
 4     4    33     0     1 Hodgkin …              0            33.0 
 5     5    54     0     1 acute ly…              0            11.4 
 6     6    55     1     1 myelofib…              1             2.43
 7     7    67     1     1 acute my…              1             9.59
 8     8    51     1     1 acute my…              1            NA   
 9     9    44     0     0 multiple…              0            43.4 
10    10    59     1     1 chronic …              0            92.7 
# … with 54 more rows, and 19 more variables: prior_radiation <dbl>,
#   prior_chemo <dbl>, prior_transplant <dbl>, recipient_cmv <dbl>,
#   donor_cmv <dbl>, donor_sex <dbl>, tnc_dose <dbl>, cd34_dose <dbl>,
#   cd3_dose <dbl>, cd8_dose <dbl>, tbi_dose <dbl>, c1_c2 <dbl>, a_ki_rs <dbl>,
#   cmv <dbl>, time_to_cmv <dbl>, agvhd <dbl>, time_to_agvhd <dbl>,
#   cgvhd <dbl>, time_to_cgvhd <dbl>
```
…
cmv %>%
# selected 3 columns
# see how diagnosis changes w/filter
* select(age, sex, diagnosis)
```
]
 
.panel2-filter1-auto[

```
[1] 64
```

```
# A tibble: 64 x 3
     age   sex diagnosis                   
   <dbl> <dbl> <chr>                       
 1    61     1 acute myeloid leukemia      
 2    62     1 non-Hodgkin lymphoma        
 3    63     0 non-Hodgkin lymphoma        
 4    33     0 Hodgkin lymphoma            
 5    54     0 acute lymphoblastic leukemia
 6    55     1 myelofibrosis               
 7    67     1 acute myeloid leukemia      
 8    51     1 acute myeloid leukemia      
 9    44     0 multiple myelomas           
10    59     1 chronic lymphocytic leukemia
# … with 54 more rows
```
…
.panel2-filter1-auto[

```
[1] 64
```

```
# A tibble: 26 x 3
     age   sex diagnosis           
   <dbl> <dbl> <chr>               
 1    62     1 non-Hodgkin lymphoma
 2    63     0 non-Hodgkin lymphoma
 3    33     0 Hodgkin lymphoma    
 4    44     0 multiple myelomas   
 5    45     1 multiple myelomas   
 6    38     0 multiple myelomas   
 7    61     0 non-Hodgkin lymphoma
 8    62     1 non-Hodgkin lymphoma
 9    48     1 renal cell carcinoma
10    48     1 renal cell carcinoma
# … with 16 more rows
```
…
# see how many rows now
# check diagnosis
# Format:
*# filter(str_detect(variable,"string"))        <br>  # filter(str_detect(variable,"string"))        <br>
```
]
 
.panel2-filter1-auto[

```
[1] 64
```

```
# A tibble: 26 x 3
     age   sex diagnosis           
   <dbl> <dbl> <chr>               
 1    62     1 non-Hodgkin lymphoma
 2    63     0 non-Hodgkin lymphoma
 3    33     0 Hodgkin lymphoma    
 4    44     0 multiple myelomas   
 5    45     1 multiple myelomas   
 6    38     0 multiple myelomas   
 7    61     0 non-Hodgkin lymphoma
 8    62     1 non-Hodgkin lymphoma
 9    48     1 renal cell carcinoma
10    48     1 renal cell carcinoma
# … with 16 more rows
```
…
# see how many rows now
# check diagnosis
# Format:
# filter(str_detect(variable,"string"))        <br>  # filter(str_detect(variable,"string"))        <br>
```
]
 
.panel2-filter1-auto[

```
[1] 64
```

```
# A tibble: 26 x 3
     age   sex diagnosis           
   <dbl> <dbl> <chr>               
 1    62     1 non-Hodgkin lymphoma
 2    63     0 non-Hodgkin lymphoma
 3    33     0 Hodgkin lymphoma    
 4    44     0 multiple myelomas   
 5    45     1 multiple myelomas   
 6    38     0 multiple myelomas   
 7    61     0 non-Hodgkin lymphoma
 8    62     1 non-Hodgkin lymphoma
 9    48     1 renal cell carcinoma
10    48     1 renal cell carcinoma
# … with 16 more rows
```
…
*cmv
```
]
 
.panel2-filter2-auto[

```
[1] 64
```

```
# A tibble: 64 x 26
      id   age   sex  race diagnosis diagnosis_type time_to_transpl…
   <dbl> <dbl> <dbl> <dbl> <chr>              <dbl>            <dbl>
 1     1    61     1     0 acute my…              1             5.16
 2     2    62     1     1 non-Hodg…              0            79.0 
 3     3    63     0     1 non-Hodg…              0            35.6 
 4     4    33     0     1 Hodgkin …              0            33.0 
 5     5    54     0     1 acute ly…              0            11.4 
 6     6    55     1     1 myelofib…              1             2.43
 7     7    67     1     1 acute my…              1             9.59
 8     8    51     1     1 acute my…              1            NA   
 9     9    44     0     0 multiple…              0            43.4 
10    10    59     1     1 chronic …              0            92.7 
# … with 54 more rows, and 19 more variables: prior_radiation <dbl>,
#   prior_chemo <dbl>, prior_transplant <dbl>, recipient_cmv <dbl>,
#   donor_cmv <dbl>, donor_sex <dbl>, tnc_dose <dbl>, cd34_dose <dbl>,
#   cd3_dose <dbl>, cd8_dose <dbl>, tbi_dose <dbl>, c1_c2 <dbl>, a_ki_rs <dbl>,
#   cmv <dbl>, time_to_cmv <dbl>, agvhd <dbl>, time_to_agvhd <dbl>,
#   cgvhd <dbl>, time_to_cgvhd <dbl>
```
…
cmv %>%
# selected 3 columns
# see how diagnosis changes w/filter
* select(age, race, diagnosis)
```
]
 
.panel2-filter2-auto[

```
[1] 64
```

```
# A tibble: 64 x 3
     age  race diagnosis                   
   <dbl> <dbl> <chr>                       
 1    61     0 acute myeloid leukemia      
 2    62     1 non-Hodgkin lymphoma        
 3    63     1 non-Hodgkin lymphoma        
 4    33     1 Hodgkin lymphoma            
 5    54     1 acute lymphoblastic leukemia
 6    55     1 myelofibrosis               
 7    67     1 acute myeloid leukemia      
 8    51     1 acute myeloid leukemia      
 9    44     0 multiple myelomas           
10    59     1 chronic lymphocytic leukemia
# … with 54 more rows
```
…
.panel2-filter2-auto[

```
[1] 64
```

```
# A tibble: 49 x 3
     age  race diagnosis                   
   <dbl> <dbl> <chr>                       
 1    61     0 acute myeloid leukemia      
 2    54     1 acute lymphoblastic leukemia
 3    55     1 myelofibrosis               
 4    67     1 acute myeloid leukemia      
 5    51     1 acute myeloid leukemia      
 6    44     0 multiple myelomas           
 7    59     1 chronic lymphocytic leukemia
 8    45     1 multiple myelomas           
 9    57     1 acute myeloid leukemia      
10    52     1 myelodysplastic syndrome    
# … with 39 more rows
```
…
# see how many rows now
# check diagnosis
# Format:
*# filter(str_detect(variable,"string"))        <br>  # filter(str_detect(variable,"string"))        <br>
```
]
 
.panel2-filter2-auto[

```
[1] 64
```

```
# A tibble: 49 x 3
     age  race diagnosis                   
   <dbl> <dbl> <chr>                       
 1    61     0 acute myeloid leukemia      
 2    54     1 acute lymphoblastic leukemia
 3    55     1 myelofibrosis               
 4    67     1 acute myeloid leukemia      
 5    51     1 acute myeloid leukemia      
 6    44     0 multiple myelomas           
 7    59     1 chronic lymphocytic leukemia
 8    45     1 multiple myelomas           
 9    57     1 acute myeloid leukemia      
10    52     1 myelodysplastic syndrome    
# … with 39 more rows
```
…
# see how many rows now
# check diagnosis
# Format:
# filter(str_detect(variable,"string"))        <br>  # filter(str_detect(variable,"string"))        <br>
```
]
 
.panel2-filter2-auto[

```
[1] 64
```

```
# A tibble: 49 x 3
     age  race diagnosis                   
   <dbl> <dbl> <chr>                       
 1    61     0 acute myeloid leukemia      
 2    54     1 acute lymphoblastic leukemia
 3    55     1 myelofibrosis               
 4    67     1 acute myeloid leukemia      
 5    51     1 acute myeloid leukemia      
 6    44     0 multiple myelomas           
 7    59     1 chronic lymphocytic leukemia
 8    45     1 multiple myelomas           
 9    57     1 acute myeloid leukemia      
10    52     1 myelodysplastic syndrome    
# … with 39 more rows
```
…
*cmv
```
]
 
.panel2-filter3-auto[

```
[1] 64
```

```
# A tibble: 64 x 26
      id   age   sex  race diagnosis diagnosis_type time_to_transpl…
   <dbl> <dbl> <dbl> <dbl> <chr>              <dbl>            <dbl>
 1     1    61     1     0 acute my…              1             5.16
 2     2    62     1     1 non-Hodg…              0            79.0 
 3     3    63     0     1 non-Hodg…              0            35.6 
 4     4    33     0     1 Hodgkin …              0            33.0 
 5     5    54     0     1 acute ly…              0            11.4 
 6     6    55     1     1 myelofib…              1             2.43
 7     7    67     1     1 acute my…              1             9.59
 8     8    51     1     1 acute my…              1            NA   
 9     9    44     0     0 multiple…              0            43.4 
10    10    59     1     1 chronic …              0            92.7 
# … with 54 more rows, and 19 more variables: prior_radiation <dbl>,
#   prior_chemo <dbl>, prior_transplant <dbl>, recipient_cmv <dbl>,
#   donor_cmv <dbl>, donor_sex <dbl>, tnc_dose <dbl>, cd34_dose <dbl>,
#   cd3_dose <dbl>, cd8_dose <dbl>, tbi_dose <dbl>, c1_c2 <dbl>, a_ki_rs <dbl>,
#   cmv <dbl>, time_to_cmv <dbl>, agvhd <dbl>, time_to_agvhd <dbl>,
#   cgvhd <dbl>, time_to_cgvhd <dbl>
```
…
cmv %>%
# selected 3 columns
# see how diagnosis changes w/filter
* select(sex, race, diagnosis)
```
]
 
.panel2-filter3-auto[

```
[1] 64
```

```
# A tibble: 64 x 3
     sex  race diagnosis                   
   <dbl> <dbl> <chr>                       
 1     1     0 acute myeloid leukemia      
 2     1     1 non-Hodgkin lymphoma        
 3     0     1 non-Hodgkin lymphoma        
 4     0     1 Hodgkin lymphoma            
 5     0     1 acute lymphoblastic leukemia
 6     1     1 myelofibrosis               
 7     1     1 acute myeloid leukemia      
 8     1     1 acute myeloid leukemia      
 9     0     0 multiple myelomas           
10     1     1 chronic lymphocytic leukemia
# … with 54 more rows
```
…
*cmv
```
]
 
.panel2-filter4-auto[

```
[1] 64
```

```
# A tibble: 64 x 26
      id   age   sex  race diagnosis diagnosis_type time_to_transpl…
   <dbl> <dbl> <dbl> <dbl> <chr>              <dbl>            <dbl>
 1     1    61     1     0 acute my…              1             5.16
 2     2    62     1     1 non-Hodg…              0            79.0 
 3     3    63     0     1 non-Hodg…              0            35.6 
 4     4    33     0     1 Hodgkin …              0            33.0 
 5     5    54     0     1 acute ly…              0            11.4 
 6     6    55     1     1 myelofib…              1             2.43
 7     7    67     1     1 acute my…              1             9.59
 8     8    51     1     1 acute my…              1            NA   
 9     9    44     0     0 multiple…              0            43.4 
10    10    59     1     1 chronic …              0            92.7 
# … with 54 more rows, and 19 more variables: prior_radiation <dbl>,
#   prior_chemo <dbl>, prior_transplant <dbl>, recipient_cmv <dbl>,
#   donor_cmv <dbl>, donor_sex <dbl>, tnc_dose <dbl>, cd34_dose <dbl>,
#   cd3_dose <dbl>, cd8_dose <dbl>, tbi_dose <dbl>, c1_c2 <dbl>, a_ki_rs <dbl>,
#   cmv <dbl>, time_to_cmv <dbl>, agvhd <dbl>, time_to_agvhd <dbl>,
#   cgvhd <dbl>, time_to_cgvhd <dbl>
```
…
cmv %>%
# selected 3 columns
# see how diagnosis changes w/filter
* select(sex, race, diagnosis)
```
]
 
.panel2-filter4-auto[

```
[1] 64
```

```
# A tibble: 64 x 3
     sex  race diagnosis                   
   <dbl> <dbl> <chr>                       
 1     1     0 acute myeloid leukemia      
 2     1     1 non-Hodgkin lymphoma        
 3     0     1 non-Hodgkin lymphoma        
 4     0     1 Hodgkin lymphoma            
 5     0     1 acute lymphoblastic leukemia
 6     1     1 myelofibrosis               
 7     1     1 acute myeloid leukemia      
 8     1     1 acute myeloid leukemia      
 9     0     0 multiple myelomas           
10     1     1 chronic lymphocytic leukemia
# … with 54 more rows
```
…
.panel2-filter4-auto[

```
[1] 64
```

```
# A tibble: 37 x 3
     sex  race diagnosis               
   <dbl> <dbl> <chr>                   
 1     1     0 acute myeloid leukemia  
 2     1     1 myelofibrosis           
 3     1     1 acute myeloid leukemia  
 4     1     1 acute myeloid leukemia  
 5     0     0 multiple myelomas       
 6     1     1 multiple myelomas       
 7     1     1 acute myeloid leukemia  
 8     0     1 myelodysplastic syndrome
 9     0     1 multiple myelomas       
10     1     1 myelodysplastic syndrome
# … with 27 more rows
```
…
# see how many rows now
# check diagnosis
# Format:
*# filter(str_detect(variable,"string"))        <br>  # filter(str_detect(variable,"string"))        <br>
```
]
 
.panel2-filter4-auto[

```
[1] 64
```

```
# A tibble: 37 x 3
     sex  race diagnosis               
   <dbl> <dbl> <chr>                   
 1     1     0 acute myeloid leukemia  
 2     1     1 myelofibrosis           
 3     1     1 acute myeloid leukemia  
 4     1     1 acute myeloid leukemia  
 5     0     0 multiple myelomas       
 6     1     1 multiple myelomas       
 7     1     1 acute myeloid leukemia  
 8     0     1 myelodysplastic syndrome
 9     0     1 multiple myelomas       
10     1     1 myelodysplastic syndrome
# … with 27 more rows
```
…
# see how many rows now
# check diagnosis
# Format:
# filter(str_detect(variable,"string"))        <br>  # filter(str_detect(variable,"string"))        <br>
```
]
 
.panel2-filter4-auto[

```
[1] 64
```

```
# A tibble: 37 x 3
     sex  race diagnosis               
   <dbl> <dbl> <chr>                   
 1     1     0 acute myeloid leukemia  
 2     1     1 myelofibrosis           
 3     1     1 acute myeloid leukemia  
 4     1     1 acute myeloid leukemia  
 5     0     0 multiple myelomas       
 6     1     1 multiple myelomas       
 7     1     1 acute myeloid leukemia  
 8     0     1 myelodysplastic syndrome
 9     0     1 multiple myelomas       
10     1     1 myelodysplastic syndrome
# … with 27 more rows
```
…
*cmv
```
]
 
.panel2-filter5-auto[

```
[1] 64
```

```
# A tibble: 64 x 26
      id   age   sex  race diagnosis diagnosis_type time_to_transpl…
   <dbl> <dbl> <dbl> <dbl> <chr>              <dbl>            <dbl>
 1     1    61     1     0 acute my…              1             5.16
 2     2    62     1     1 non-Hodg…              0            79.0 
 3     3    63     0     1 non-Hodg…              0            35.6 
 4     4    33     0     1 Hodgkin …              0            33.0 
 5     5    54     0     1 acute ly…              0            11.4 
 6     6    55     1     1 myelofib…              1             2.43
 7     7    67     1     1 acute my…              1             9.59
 8     8    51     1     1 acute my…              1            NA   
 9     9    44     0     0 multiple…              0            43.4 
10    10    59     1     1 chronic …              0            92.7 
# … with 54 more rows, and 19 more variables: prior_radiation <dbl>,
#   prior_chemo <dbl>, prior_transplant <dbl>, recipient_cmv <dbl>,
#   donor_cmv <dbl>, donor_sex <dbl>, tnc_dose <dbl>, cd34_dose <dbl>,
#   cd3_dose <dbl>, cd8_dose <dbl>, tbi_dose <dbl>, c1_c2 <dbl>, a_ki_rs <dbl>,
#   cmv <dbl>, time_to_cmv <dbl>, agvhd <dbl>, time_to_agvhd <dbl>,
#   cgvhd <dbl>, time_to_cgvhd <dbl>
```
…
cmv %>%
# selected 3 columns
# see how diagnosis changes w/filter
* select(sex, race, diagnosis)
```
]
 
.panel2-filter5-auto[

```
[1] 64
```

```
# A tibble: 64 x 3
     sex  race diagnosis                   
   <dbl> <dbl> <chr>                       
 1     1     0 acute myeloid leukemia      
 2     1     1 non-Hodgkin lymphoma        
 3     0     1 non-Hodgkin lymphoma        
 4     0     1 Hodgkin lymphoma            
 5     0     1 acute lymphoblastic leukemia
 6     1     1 myelofibrosis               
 7     1     1 acute myeloid leukemia      
 8     1     1 acute myeloid leukemia      
 9     0     0 multiple myelomas           
10     1     1 chronic lymphocytic leukemia
# … with 54 more rows
```
…
