How to Use the filter() function for numeric values
…
*prostate
```
]
 
.panel2-filter1-auto[

```
[1] 316
```

```
# A tibble: 316 x 20
   rbc_age_group median_rbc_age   age    aa fam_hx p_vol t_vol t_stage  b_gs
           <dbl>          <dbl> <dbl> <dbl>  <dbl> <dbl> <dbl>   <dbl> <dbl>
 1             3             25  72.1     0      0  54       3       1     3
 2             3             25  73.6     0      0  43.2     3       2     2
 3             3             25  67.5     0      0 103.      1       1     3
 4             2             15  65.8     0      0  46       1       1     1
 5             2             15  63.2     0      0  60       2       1     2
 6             3             25  65.4     0      0  45.9     2       1     1
 7             3             25  65.5     1      0  42.6     2       1     1
 8             1             10  67.1     0      0  40.7     3       1     1
 9             1             10  63.9     0      0  45       2       1     1
10             2             15  63       1      0  67.6     2       1     2
# … with 306 more rows, and 11 more variables: bn <dbl>, organ_confined <dbl>,
#   preop_psa <dbl>, preop_therapy <dbl>, units <dbl>, s_gs <dbl>,
#   any_adj_therapy <dbl>, adj_rad_therapy <dbl>, recurrence <dbl>,
#   censor <dbl>, time_to_recurrence <dbl>
```
…
prostate %>%
# check next line: some recur, some do not
# selected 4 columns
* select(age, aa, fam_hx, recurrence)
```
]
 
.panel2-filter1-auto[

```
[1] 316
```

```
# A tibble: 316 x 4
     age    aa fam_hx recurrence
   <dbl> <dbl>  <dbl>      <dbl>
 1  72.1     0      0          1
 2  73.6     0      0          1
 3  67.5     0      0          0
 4  65.8     0      0          0
 5  63.2     0      0          0
 6  65.4     0      0          0
 7  65.5     1      0          0
 8  67.1     0      0          1
 9  63.9     0      0          0
10  63       1      0          0
# … with 306 more rows
```
…
.panel2-filter1-auto[

```
[1] 316
```

```
# A tibble: 54 x 4
     age    aa fam_hx recurrence
   <dbl> <dbl>  <dbl>      <dbl>
 1  72.1     0      0          1
 2  73.6     0      0          1
 3  67.1     0      0          1
 4  64.4     0      0          1
 5  69       1      0          1
 6  63.4     1      0          1
 7  70.4     1      0          1
 8  65.3     1      0          1
 9  60.8     0      0          1
10  72.1     0      1          1
# … with 44 more rows
```
…
# see how many rows x cols now
#
# Format:
*# filter(variable [comparison] value)        <br>  # filter(variable [comparison] value)        <br>
```
]
 
.panel2-filter1-auto[

```
[1] 316
```

```
# A tibble: 54 x 4
     age    aa fam_hx recurrence
   <dbl> <dbl>  <dbl>      <dbl>
 1  72.1     0      0          1
 2  73.6     0      0          1
 3  67.1     0      0          1
 4  64.4     0      0          1
 5  69       1      0          1
 6  63.4     1      0          1
 7  70.4     1      0          1
 8  65.3     1      0          1
 9  60.8     0      0          1
10  72.1     0      1          1
# … with 44 more rows
```
…
# see how many rows x cols now
#
# Format:
# filter(variable [comparison] value)        <br>  # filter(variable [comparison] value)        <br>
```
]
 
.panel2-filter1-auto[

```
[1] 316
```

```
# A tibble: 54 x 4
     age    aa fam_hx recurrence
   <dbl> <dbl>  <dbl>      <dbl>
 1  72.1     0      0          1
 2  73.6     0      0          1
 3  67.1     0      0          1
 4  64.4     0      0          1
 5  69       1      0          1
 6  63.4     1      0          1
 7  70.4     1      0          1
 8  65.3     1      0          1
 9  60.8     0      0          1
10  72.1     0      1          1
# … with 44 more rows
```
…
*prostate
```
]
 
.panel2-filter2-auto[

```
[1] 316
```

```
# A tibble: 316 x 20
   rbc_age_group median_rbc_age   age    aa fam_hx p_vol t_vol t_stage  b_gs
           <dbl>          <dbl> <dbl> <dbl>  <dbl> <dbl> <dbl>   <dbl> <dbl>
 1             3             25  72.1     0      0  54       3       1     3
 2             3             25  73.6     0      0  43.2     3       2     2
 3             3             25  67.5     0      0 103.      1       1     3
 4             2             15  65.8     0      0  46       1       1     1
 5             2             15  63.2     0      0  60       2       1     2
 6             3             25  65.4     0      0  45.9     2       1     1
 7             3             25  65.5     1      0  42.6     2       1     1
 8             1             10  67.1     0      0  40.7     3       1     1
 9             1             10  63.9     0      0  45       2       1     1
10             2             15  63       1      0  67.6     2       1     2
# … with 306 more rows, and 11 more variables: bn <dbl>, organ_confined <dbl>,
#   preop_psa <dbl>, preop_therapy <dbl>, units <dbl>, s_gs <dbl>,
#   any_adj_therapy <dbl>, adj_rad_therapy <dbl>, recurrence <dbl>,
#   censor <dbl>, time_to_recurrence <dbl>
```
…
prostate %>%
# check next line: some recur, some do not
# selected 4 columns
* select(age, recurrence, preop_psa)
```
]
 
.panel2-filter2-auto[

```
[1] 316
```

```
# A tibble: 316 x 3
     age recurrence preop_psa
   <dbl>      <dbl>     <dbl>
 1  72.1          1     14.1 
 2  73.6          1     10.5 
 3  67.5          0      6.98
 4  65.8          0      4.4 
 5  63.2          0     21.4 
 6  65.4          0      5.1 
 7  65.5          0      6.03
 8  67.1          1      8.7 
 9  63.9          0      3.83
10  63            0      7.98
# … with 306 more rows
```
…
*prostate
```
]
 
.panel2-filter3-auto[

```
[1] 316
```

```
# A tibble: 316 x 20
   rbc_age_group median_rbc_age   age    aa fam_hx p_vol t_vol t_stage  b_gs
           <dbl>          <dbl> <dbl> <dbl>  <dbl> <dbl> <dbl>   <dbl> <dbl>
 1             3             25  72.1     0      0  54       3       1     3
 2             3             25  73.6     0      0  43.2     3       2     2
 3             3             25  67.5     0      0 103.      1       1     3
 4             2             15  65.8     0      0  46       1       1     1
 5             2             15  63.2     0      0  60       2       1     2
 6             3             25  65.4     0      0  45.9     2       1     1
 7             3             25  65.5     1      0  42.6     2       1     1
 8             1             10  67.1     0      0  40.7     3       1     1
 9             1             10  63.9     0      0  45       2       1     1
10             2             15  63       1      0  67.6     2       1     2
# … with 306 more rows, and 11 more variables: bn <dbl>, organ_confined <dbl>,
#   preop_psa <dbl>, preop_therapy <dbl>, units <dbl>, s_gs <dbl>,
#   any_adj_therapy <dbl>, adj_rad_therapy <dbl>, recurrence <dbl>,
#   censor <dbl>, time_to_recurrence <dbl>
```
…
prostate %>%
# check next line: some recur, some do not
# selected 4 columns
* select(age, recurrence, preop_psa)
```
]
 
.panel2-filter3-auto[

```
[1] 316
```

```
# A tibble: 316 x 3
     age recurrence preop_psa
   <dbl>      <dbl>     <dbl>
 1  72.1          1     14.1 
 2  73.6          1     10.5 
 3  67.5          0      6.98
 4  65.8          0      4.4 
 5  63.2          0     21.4 
 6  65.4          0      5.1 
 7  65.5          0      6.03
 8  67.1          1      8.7 
 9  63.9          0      3.83
10  63            0      7.98
# … with 306 more rows
```
…
*prostate
```
]
 
.panel2-filter4-auto[

```
[1] 316
```

```
# A tibble: 316 x 20
   rbc_age_group median_rbc_age   age    aa fam_hx p_vol t_vol t_stage  b_gs
           <dbl>          <dbl> <dbl> <dbl>  <dbl> <dbl> <dbl>   <dbl> <dbl>
 1             3             25  72.1     0      0  54       3       1     3
 2             3             25  73.6     0      0  43.2     3       2     2
 3             3             25  67.5     0      0 103.      1       1     3
 4             2             15  65.8     0      0  46       1       1     1
 5             2             15  63.2     0      0  60       2       1     2
 6             3             25  65.4     0      0  45.9     2       1     1
 7             3             25  65.5     1      0  42.6     2       1     1
 8             1             10  67.1     0      0  40.7     3       1     1
 9             1             10  63.9     0      0  45       2       1     1
10             2             15  63       1      0  67.6     2       1     2
# … with 306 more rows, and 11 more variables: bn <dbl>, organ_confined <dbl>,
#   preop_psa <dbl>, preop_therapy <dbl>, units <dbl>, s_gs <dbl>,
#   any_adj_therapy <dbl>, adj_rad_therapy <dbl>, recurrence <dbl>,
#   censor <dbl>, time_to_recurrence <dbl>
```
…
prostate %>%
# check next line: some recur, some do not
# selected 4 columns
* select(age, recurrence, preop_psa)
```
]
 
.panel2-filter4-auto[

```
[1] 316
```

```
# A tibble: 316 x 3
     age recurrence preop_psa
   <dbl>      <dbl>     <dbl>
 1  72.1          1     14.1 
 2  73.6          1     10.5 
 3  67.5          0      6.98
 4  65.8          0      4.4 
 5  63.2          0     21.4 
 6  65.4          0      5.1 
 7  65.5          0      6.03
 8  67.1          1      8.7 
 9  63.9          0      3.83
10  63            0      7.98
# … with 306 more rows
```
…
*prostate
```
]
 
.panel2-filter5-auto[

```
[1] 316
```

```
# A tibble: 316 x 20
   rbc_age_group median_rbc_age   age    aa fam_hx p_vol t_vol t_stage  b_gs
           <dbl>          <dbl> <dbl> <dbl>  <dbl> <dbl> <dbl>   <dbl> <dbl>
 1             3             25  72.1     0      0  54       3       1     3
 2             3             25  73.6     0      0  43.2     3       2     2
 3             3             25  67.5     0      0 103.      1       1     3
 4             2             15  65.8     0      0  46       1       1     1
 5             2             15  63.2     0      0  60       2       1     2
 6             3             25  65.4     0      0  45.9     2       1     1
 7             3             25  65.5     1      0  42.6     2       1     1
 8             1             10  67.1     0      0  40.7     3       1     1
 9             1             10  63.9     0      0  45       2       1     1
10             2             15  63       1      0  67.6     2       1     2
# … with 306 more rows, and 11 more variables: bn <dbl>, organ_confined <dbl>,
#   preop_psa <dbl>, preop_therapy <dbl>, units <dbl>, s_gs <dbl>,
#   any_adj_therapy <dbl>, adj_rad_therapy <dbl>, recurrence <dbl>,
#   censor <dbl>, time_to_recurrence <dbl>
```
…
prostate %>%
# check next line: some recur, some do not
# selected 4 columns
* select(age, recurrence, preop_psa)
```
]
 
.panel2-filter5-auto[

```
[1] 316
```

```
# A tibble: 316 x 3
     age recurrence preop_psa
   <dbl>      <dbl>     <dbl>
 1  72.1          1     14.1 
 2  73.6          1     10.5 
 3  67.5          0      6.98
 4  65.8          0      4.4 
 5  63.2          0     21.4 
 6  65.4          0      5.1 
 7  65.5          0      6.03
 8  67.1          1      8.7 
 9  63.9          0      3.83
10  63            0      7.98
# … with 306 more rows
```
…
.panel2-filter5-auto[

```
[1] 316
```

```
# A tibble: 24 x 3
     age recurrence preop_psa
   <dbl>      <dbl>     <dbl>
 1  73.6          1      10.5
 2  59.7          0      10.4
 3  72.1          1      10.1
 4  55.8          0      10  
 5  57.1          0      10  
 6  70.6          0      11.9
 7  55.6          0      11.9
 8  71.8          1      11.9
 9  50.6          0      11.1
10  63.9          1      10.1
# … with 14 more rows
```
…
# see how many rows now
#
# Format:
*# filter(variable [comparison] value)        <br>  # filter(variable [comparison] value)        <br>
```
]
 
.panel2-filter5-auto[

```
[1] 316
```

```
# A tibble: 24 x 3
     age recurrence preop_psa
   <dbl>      <dbl>     <dbl>
 1  73.6          1      10.5
 2  59.7          0      10.4
 3  72.1          1      10.1
 4  55.8          0      10  
 5  57.1          0      10  
 6  70.6          0      11.9
 7  55.6          0      11.9
 8  71.8          1      11.9
 9  50.6          0      11.1
10  63.9          1      10.1
# … with 14 more rows
```
…
# see how many rows now
#
# Format:
# filter(variable [comparison] value)        <br>  # filter(variable [comparison] value)        <br>
```
]
 
.panel2-filter5-auto[

```
[1] 316
```

```
# A tibble: 24 x 3
     age recurrence preop_psa
   <dbl>      <dbl>     <dbl>
 1  73.6          1      10.5
 2  59.7          0      10.4
 3  72.1          1      10.1
 4  55.8          0      10  
 5  57.1          0      10  
 6  70.6          0      11.9
 7  55.6          0      11.9
 8  71.8          1      11.9
 9  50.6          0      11.1
10  63.9          1      10.1
# … with 14 more rows
```
…
*prostate
```
]
 
.panel2-filter5-auto[

```
[1] 316
```

```
# A tibble: 316 x 20
   rbc_age_group median_rbc_age   age    aa fam_hx p_vol t_vol t_stage  b_gs
           <dbl>          <dbl> <dbl> <dbl>  <dbl> <dbl> <dbl>   <dbl> <dbl>
 1             3             25  72.1     0      0  54       3       1     3
 2             3             25  73.6     0      0  43.2     3       2     2
 3             3             25  67.5     0      0 103.      1       1     3
 4             2             15  65.8     0      0  46       1       1     1
 5             2             15  63.2     0      0  60       2       1     2
 6             3             25  65.4     0      0  45.9     2       1     1
 7             3             25  65.5     1      0  42.6     2       1     1
 8             1             10  67.1     0      0  40.7     3       1     1
 9             1             10  63.9     0      0  45       2       1     1
10             2             15  63       1      0  67.6     2       1     2
# … with 306 more rows, and 11 more variables: bn <dbl>, organ_confined <dbl>,
#   preop_psa <dbl>, preop_therapy <dbl>, units <dbl>, s_gs <dbl>,
#   any_adj_therapy <dbl>, adj_rad_therapy <dbl>, recurrence <dbl>,
#   censor <dbl>, time_to_recurrence <dbl>
```
…
prostate %>%
# check next line: some recur, some do not
# selected 4 columns
* select(age, recurrence, preop_psa)
```
]
 
.panel2-filter5-auto[

```
[1] 316
```

```
# A tibble: 316 x 3
     age recurrence preop_psa
   <dbl>      <dbl>     <dbl>
 1  72.1          1     14.1 
 2  73.6          1     10.5 
 3  67.5          0      6.98
 4  65.8          0      4.4 
 5  63.2          0     21.4 
 6  65.4          0      5.1 
 7  65.5          0      6.03
 8  67.1          1      8.7 
 9  63.9          0      3.83
10  63            0      7.98
# … with 306 more rows
```
…
.panel2-filter5-auto[

```
[1] 316
```

```
# A tibble: 24 x 3
     age recurrence preop_psa
   <dbl>      <dbl>     <dbl>
 1  73.6          1      10.5
 2  59.7          0      10.4
 3  72.1          1      10.1
 4  55.8          0      10  
 5  57.1          0      10  
 6  70.6          0      11.9
 7  55.6          0      11.9
 8  71.8          1      11.9
 9  50.6          0      11.1
10  63.9          1      10.1
# … with 14 more rows
```
…
# see how many rows now
#
# Format:
*# filter(variable [comparison] value)        <br>  # filter(variable [comparison] value)        <br>
```
]
 
.panel2-filter5-auto[

```
[1] 316
```

```
# A tibble: 24 x 3
     age recurrence preop_psa
   <dbl>      <dbl>     <dbl>
 1  73.6          1      10.5
 2  59.7          0      10.4
 3  72.1          1      10.1
 4  55.8          0      10  
 5  57.1          0      10  
 6  70.6          0      11.9
 7  55.6          0      11.9
 8  71.8          1      11.9
 9  50.6          0      11.1
10  63.9          1      10.1
# … with 14 more rows
```
…
# see how many rows now
#
# Format:
# filter(variable [comparison] value)        <br>  # filter(variable [comparison] value)        <br>
```
]
 
.panel2-filter5-auto[

```
[1] 316
```

```
# A tibble: 24 x 3
     age recurrence preop_psa
   <dbl>      <dbl>     <dbl>
 1  73.6          1      10.5
 2  59.7          0      10.4
 3  72.1          1      10.1
 4  55.8          0      10  
 5  57.1          0      10  
 6  70.6          0      11.9
 7  55.6          0      11.9
 8  71.8          1      11.9
 9  50.6          0      11.1
10  63.9          1      10.1
# … with 14 more rows
```
…
