How to t test
…
count: false
 
Tidy version from the {infer} package
.panel1-ttest1-auto[

```r
*prostate
```
]
 
.panel2-ttest1-auto[

```
# A tibble: 316 x 20
   RBC.Age.Group Median.RBC.Age   Age    AA FamHx  PVol  TVol T.Stage   bGS
           <dbl>          <dbl> <dbl> <dbl> <dbl> <dbl> <dbl>   <dbl> <dbl>
 1             3             25  72.1     0     0  54       3       1     3
 2             3             25  73.6     0     0  43.2     3       2     2
 3             3             25  67.5     0     0 103.      1       1     3
 4             2             15  65.8     0     0  46       1       1     1
 5             2             15  63.2     0     0  60       2       1     2
 6             3             25  65.4     0     0  45.9     2       1     1
 7             3             25  65.5     1     0  42.6     2       1     1
 8             1             10  67.1     0     0  40.7     3       1     1
 9             1             10  63.9     0     0  45       2       1     1
10             2             15  63       1     0  67.6     2       1     2
# … with 306 more rows, and 11 more variables: `BN+` <dbl>,
#   OrganConfined <dbl>, PreopPSA <dbl>, PreopTherapy <dbl>, Units <dbl>,
#   sGS <dbl>, AnyAdjTherapy <dbl>, AdjRadTherapy <dbl>, Recurrence <dbl>,
#   Censor <dbl>, TimeToRecurrence <dbl>
```
…
count: false
 
Base R Version
.panel1-ttest2-auto[

```r
*prostate
```
]
 
.panel2-ttest2-auto[

```
# A tibble: 316 x 20
   RBC.Age.Group Median.RBC.Age   Age    AA FamHx  PVol  TVol T.Stage   bGS
           <dbl>          <dbl> <dbl> <dbl> <dbl> <dbl> <dbl>   <dbl> <dbl>
 1             3             25  72.1     0     0  54       3       1     3
 2             3             25  73.6     0     0  43.2     3       2     2
 3             3             25  67.5     0     0 103.      1       1     3
 4             2             15  65.8     0     0  46       1       1     1
 5             2             15  63.2     0     0  60       2       1     2
 6             3             25  65.4     0     0  45.9     2       1     1
 7             3             25  65.5     1     0  42.6     2       1     1
 8             1             10  67.1     0     0  40.7     3       1     1
 9             1             10  63.9     0     0  45       2       1     1
10             2             15  63       1     0  67.6     2       1     2
# … with 306 more rows, and 11 more variables: `BN+` <dbl>,
#   OrganConfined <dbl>, PreopPSA <dbl>, PreopTherapy <dbl>, Units <dbl>,
#   sGS <dbl>, AnyAdjTherapy <dbl>, AdjRadTherapy <dbl>, Recurrence <dbl>,
#   Censor <dbl>, TimeToRecurrence <dbl>
```
…
